         run       event       nTopo   nIdTracks  nTauTracks       nTaus      nMuons       nElec   nTrueElec   nFakeElec       nPhot   nTruePhot   nFakePhot
      330470  1183721871         761         829         177          10           5          16           0          16          36           0          36
      330470  1183722156         360         388          38           3           1           3           0           3          12           0          12
      330470  1183722158           1           0           0           0           0           0           0           0           0           0           0
      330470  1183722342         394         429          33           3           0           2           0           2          15           0          15
      330470  1183723134         463         502          57           7           4           3           0           3          16           0          16
      330470  1183723677         583         584         108           9           2          13           0          13          33           0          33
      330470  1183724572         518         627         115           7           3           7           0           7          15           0          15
      330470  1183725127         367         460          67           5           2           9           0           9          16           0          16
      330470  1183726136         561         626          44           4           4           6           0           6          18           0          18
      330470  1183727515         408         398          66           3           1           7           0           7          19           0          19
      330470  1183727920         565         689         151           9           2           7           0           7          23           0          23
      330470  1183727953         532         595          90           7           2           7           0           7          24           0          24
      330470  1183728466         399         442          69           7           1          11           0          11          14           0          14
      330470  1183728476         539         529         107           9           0          15           0          15          25           0          25
      330470  1183729021         390         408          93           7           0          12           0          12          14           0          14
      330470  1183729025         420         475          85           7           0           8           0           8          14           0          14
      330470  1183730486         406         399          43           7           3           0           0           0          20           0          20
      330470  1183731705         735         779         226          16           2          14           0          14          42           0          42
      330470  1183731814         591         539          96           8           3           6           0           6          29           0          29
      330470  1183731884         420         374          12           3           1           2           0           2          12           0          12
      330470  1183732647         467         503         100           7           1           7           0           7          20           0          20
      330470  1183733040         381         290          21           3           1           5           0           5          10           0          10
      330470  1183733070         431         553         141           9           1          17           0          17          23           0          23
      330470  1183733727         678         789         132          10           0           7           0           7          35           0          35
      330470  1183734651         361         374          75           7           3           5           0           5          18           0          18
      330470  1183734704         438         446          41           6           6           2           0           2          23           0          23
      330470  1183734871         556         602         117           8           1          14           0          14          21           0          21
      330470  1183735332         406         386          53           8           1           5           0           5          10           0          10
      330470  1183735593         480         451          71           7           1           5           0           5          26           0          26
      330470  1183735786         311         217           8           2           1           0           0           0           8           0           8
      330470  1183736050         589         694          67           5           1          11           0          11          29           0          29
      330470  1183736197         453         486          94           7           4           6           0           6          15           0          15
      330470  1183736364         427         407          54           5           0           6           0           6          16           0          16
      330470  1183736418         466         487          61           5           2          13           0          13          17           0          17
      330470  1183736475         741         711          98           8           1           2           0           2          22           0          22
      330470  1183737047         481         540          99           9           1           7           0           7          24           0          24
      330470  1183737710         492         504         124           7           3          22           0          22          20           0          20
      330470  1183738386         525         474          98           6           2          20           0          20          30           0          30
      330470  1183738728           1           0           0           0           0           0           0           0           0           0           0
      330470  1183738949         368         451          77           7           1           5           0           5          11           0          11
      330470  1183739966         531         428         118           9           1          12           0          12          24           0          24
      330470  1183740967         558         649         123           9           0           4           0           4          19           0          19
      330470  1183741011         240         346          41           5           3           5           0           5          13           0          13
      330470  1183742016         289         307          28           4           1           4           0           4           6           0           6
      330470  1183742376         372         397          36           3           1           2           0           2          10           0          10
      330470  1183742489         152         127           2           1           0           1           0           1           1           0           1
      330470  1183742713         364         436          75           5           2          11           0          11          16           0          16
      330470  1183743040         285         326          26           5           0           3           0           3           5           0           5
      330470  1183743941         404         368          83           8           2          15           0          15          13           0          13
      330470  1183744491         530         650          86           6           1          13           0          13          16           0          16
      330470  1183744557         302         358          42           2           0           4           0           4          11           0          11
      330470  1183744835         411         416          63           5           1           8           0           8          19           0          19
      330470  1183744941         316         384          47           6           2           7           0           7          17           0          17
      330470  1183745001         320         380          30           2           0          10           0          10          12           0          12
      330470  1183745791         361         401         105           7           0          19           0          19          20           0          20
      330470  1183745889         371         380          68           8           1           5           0           5          10           0          10
      330470  1183746019         446         489          67           6           0           7           0           7          24           0          24
      330470  1183746343         492         495          55           5           1           3           0           3          16           0          16
      330470  1183746391         364         441         120           8           2          15           0          15          20           0          20
      330470  1183746668         459         380          70           8           0           7           0           7          20           0          20
      330470  1183746710           6           0           0           0           0           0           0           0           0           0           0
      330470  1183746776         348         356          77           7           1           9           0           9          27           0          27
      330470  1183747953         302         377          10           1           2           4           0           4          10           0          10
      330470  1183748096         455         491          57           6           0           5           0           5          17           0          17
      330470  1183748136         663         654         117           9           1          13           0          13          26           0          26
      330470  1183748263         396         410          66           6           2           8           0           8          16           0          16
      330470  1183748421         460         422          67           8           1           8           0           8          15           0          15
      330470  1183748705         490         523          64           5           2           9           0           9          20           0          20
      330470  1183750758         436         393          45           5           1           4           0           4          15           0          15
      330470  1183750781         377         365          62           8           1           5           0           5          16           0          16
      330470  1183750906         702         757         143          10           3          10           0          10          29           0          29
      330470  1183751782         239         246           8           2           0           0           0           0           6           0           6
      330470  1183752624         347         366          57           6           2           5           0           5          15           0          15
      330470  1183753006         357         398          38           5           1           4           0           4          14           0          14
      330470  1183753030         398         352         113           7           2          23           0          23          20           0          20
      330470  1183753541         400         453          62           6           2           8           0           8          11           0          11
      330470  1183754806         470         424          73           9           0           2           0           2          17           0          17
      330470  1183755085         482         516         130           8           2          15           0          15          27           0          27
      330470  1183756180         447         374          59           7           0           2           0           2          16           0          16
      330470  1183756295         367         451          72           8           1           7           0           7          12           0          12
      330470  1183756303         565         586         153           9           0          24           0          24          24           0          24
      330470  1183756939         606         591          67           4           1          19           0          19          26           0          26
      330470  1183756951         283         272          17           2           1           2           0           2           4           0           4
      330470  1183757556         300         272          37           4           1           5           0           5          10           0          10
      330470  1183758317         685         736         134          10           0          13           0          13          29           0          29
      330470  1183758663         340         310          48           7           0           5           0           5          11           0          11
      330470  1183758709         340         255          37           6           2           4           0           4          12           0          12
      330470  1183758819         446         528         141           9           1          24           0          24          19           0          19
      330470  1183759087         476         451          80          11           2           8           0           8          19           0          19
      330470  1183759951         610         728         184          10           4          18           0          18          32           0          32
      330470  1183760662         421         421          71           8           1           8           0           8          18           0          18
      330470  1183760713         430         489         100           9           0          11           0          11          21           0          21
      330470  1183761092         301         437          41           4           3           6           0           6           8           0           8
      330470  1183762287         384         434          52           7           2           4           0           4          13           0          13
      330470  1183762295         411         424          99           9           2           9           0           9          16           0          16
      330470  1183762346         487         457         128          11           2          29           0          29          26           0          26
      330470  1183762622         389         401          55           6           1           6           0           6          15           0          15
      330470  1183762728         539         496         136           8           0          19           0          19          27           0          27
      330470  1183764544         400         364          60           4           3           9           0           9          15           0          15
      330470  1183764842         585         645         127          11           1          15           0          15          29           0          29
      330470  1183765366         464         522          99           8           1           6           0           6          11           0          11
      330470  1183765436         301         213          26           3           0           5           0           5           5           0           5
      330470  1183767528         668         643          93           7           0           8           0           8          28           0          28
      330470  1183767718         467         454         131          12           2          15           0          15          17           0          17
      330470  1183768132         410         432          40           4           2           4           0           4          15           0          15
      330470  1183768747         598         594         164          12           2          24           0          24          25           0          25
      330470  1183768758         656         729         136           8           2          16           0          16          24           0          24
      330470  1183769295         342         338          16           2           2           0           0           0           6           0           6
      330470  1183769514         383         372          29           4           2           2           0           2          14           0          14
      330470  1183769648         527         579          46           5           4           6           0           6          17           0          17
      330470  1183769939         348         362          39           4           2           8           0           8          11           0          11
      330470  1183770542         525         545         115          10           1          11           0          11          28           0          28
      330470  1183771482         391         433          88           8           0           8           0           8          17           0          17
      330470  1183771836         373         452          30           4           3           1           0           1          13           0          13
      330470  1183771838         409         313          33           4           0           3           0           3          18           0          18
      330470  1183771849         555         454         104           7           0           9           0           9          25           0          25
      330470  1183773222         341         393          12           2           2           2           0           2           1           0           1
      330470  1183773321         583         544          91           9           1           7           0           7          33           0          33
      330470  1183773556         421         377          45           4           0           7           0           7          17           0          17
      330470  1183773832         307         209          19           3           0           2           0           2          13           0          13
      330470  1183774235         325         348          36           3           1          11           0          11          13           0          13
      330470  1183775004         453         401          11           2           2           1           0           1          17           0          17
      330470  1183775209          57           0           0           0           0           0           0           0           0           0           0
      330470  1183776444         450         417          74           7           4           4           0           4          14           0          14
      330470  1183776871         425         441          68           7           2           9           0           9          18           0          18
      330470  1183777434         310         328          43           6           0           4           0           4          13           0          13
      330470  1183777582         422         480          85           6           2           9           0           9          14           0          14
      330470  1183778621         584         651         139          10           1           6           0           6          24           0          24
      330470  1183779564         332         315          35           4           2           5           0           5           7           0           7
      330470  1183779664         432         341          91           8           0          10           0          10          21           0          21
      330470  1183779916         499         525          88          10           2           5           0           5          17           0          17
      330470  1183780039         444         377          38           6           3           2           0           2          16           0          16
      330470  1183780441         560         546          64           6           2           9           0           9          29           0          29
      330470  1183781429         432         499         162          10           1          20           0          20          28           0          28
      330470  1183781526         711         904         179          12           0          13           0          13          36           0          36
      330470  1183782439         478         550         123          10           2           6           0           6          18           0          18
      330470  1183782592         487         574          80           5           1           6           0           6          16           0          16
      330470  1183782928         539         645          91           8           3           8           0           8          25           0          25
      330470  1183783289         507         599         110           7           1          15           0          15          20           0          20
      330470  1183783835         437         472         116           6           1          15           0          15          30           0          30
      330470  1183783921         518         489         104           6           1          21           0          21          33           0          33
      330470  1183784212         561         538         142          10           0          36           0          36          28           0          28
      330470  1183784686         458         490         141          14           6           5           0           5          23           0          23
      330470  1183784788         350         327          69           5           3          18           0          18          16           0          16
      330470  1183785404         682         719         176          14           2          11           0          11          32           0          32
      330470  1183786663         355         436          57           7           2           2           0           2           6           0           6
      330470  1183787021         684         606          90           9           2           9           0           9          33           0          33
      330470  1183787124         431         384          29           4           2           3           0           3          17           0          17
      330470  1183787218         252         198          42           5           0           3           0           3           8           0           8
      330470  1183787604         393         409          64           9           1           6           0           6          18           0          18
      330470  1183787946         321         325          19           2           1           2           0           2           9           0           9
      330470  1183789290         453         434          75           9           0           7           0           7          24           0          24
      330470  1183789772         509         557         142          10           1          17           0          17          29           0          29
      330470  1183791251         244         235          25           4           0           3           0           3          10           0          10
      330470  1183791330         473         700         120           8           3           9           0           9          17           0          17
      330470  1183791750         557         620          66           5           1           7           0           7          22           0          22
      330470  1183792274         381         397         134          11           0          24           0          24          27           0          27
      330470  1183792395         364         289          80           6           0          17           0          17          14           0          14
      330470  1183792990         468         509         150          11           4          24           0          24          28           0          28
      330470  1183793190         396         527          76           7           1          10           0          10          14           0          14
      330470  1183793693         492         620         175          13           2          16           0          16          29           0          29
      330470  1183793783         562         522         114           8           4          20           0          20          27           0          27
      330470  1183794278         454         558          52           3           0           7           0           7           9           0           9
      330470  1183794508         448         473          98           6           1          18           0          18          19           0          19
      330470  1183794655         393         364          30           5           1           3           0           3           5           0           5
      330470  1183794666         774         933         219          13           2          12           0          12          33           0          33
      330470  1183795240         458         462          69           5           4           9           0           9          23           0          23
      330470  1183795260         773         649          78           6           1           6           0           6          37           0          37
      330470  1183795329         458         356          25           6           0           4           0           4          14           0          14
      330470  1183795353         507         619          98           8           0          14           0          14          31           0          31
      330470  1183797124         420         346          16           2           1           4           0           4          11           0          11
      330470  1183797477         347         449          69           5           3          13           0          13          13           0          13
      330470  1183797613         396         345          74           9           2           4           0           4          19           0          19
      330470  1183797726         498         460          67           8           0           5           0           5          19           0          19
      330470  1183797746         356         341          40           6           1           1           0           1           7           0           7
      330470  1183797788         582         503         103           9           1          10           0          10          34           0          34
      330470  1183798102         796         915         258          18           5          12           0          12          37           0          37
      330470  1183798170         408         355          41           7           2           5           0           5          14           0          14
      330470  1183799182         527         500          32           3           0           3           0           3          22           0          22
      330470  1183799941         511         496         123          10           2          14           0          14          18           0          18
      330470  1183800136         567         652         111           9           2          13           0          13          33           0          33
      330470  1183800710         470         476          39           5           0           5           0           5          17           0          17
      330470  1183801077         415         446          47           5           1           5           0           5          22           0          22
      330470  1183801428         382         344          57           6           1           4           0           4           9           0           9
      330470  1183802242         434         392          41           6           3           7           0           7          19           0          19
      330470  1183804252         552         594          92           6           2          12           0          12          21           0          21
      330470  1183804485         453         502          97           7           1          16           0          16          21           0          21
      330470  1183804522         298         235          14           4           1           0           0           0           7           0           7
      330470  1183806136         476         510          92           9           3           5           0           5          18           0          18
      330470  1183806285          10           0           0           0           0           0           0           0           0           0           0
      330470  1183806454         571         707         151           6           3          13           0          13          27           0          27
      330470  1183806526         264         320          34           5           2           2           0           2           7           0           7
      330470  1183807145         492         455         145          11           0          15           0          15          33           0          33
      330470  1183807361         528         595         113           9           2           9           0           9          27           0          27
      330470  1183807825         540         586         148          10           1          14           0          14          30           0          30
      330470  1183808819          67           0           0           0           0           0           0           0           4           0           4
      330470  1183809482         344         321          25           3           0           7           0           7          19           0          19
      330470  1183810229         534         491          76           5           2           9           0           9          31           0          31
      330470  1183810298         469         443          93           5           2          16           0          16          18           0          18
      330470  1183810366         418         451          68           7           0           2           0           2          11           0          11
      330470  1183810794         564         518          72           8           1           4           0           4          20           0          20
      330470  1183810833         344         387          79           8           1           9           0           9          12           0          12
      330470  1183811141         533         498          84           8           3           8           0           8          11           0          11
      330470  1183812547         491         473         119           7           5          18           0          18          24           0          24
      330470  1183812810         277         347          27           4           0           1           0           1           8           0           8
      330470  1183812846         410         468          51           6           0           7           0           7          19           0          19
      330470  1183813497         472         502          47           6           1           7           0           7          21           0          21
      330470  1183814282         230         216           4           1           2           0           0           0           1           0           1
      330470  1183814497         446         496          36           3           1           6           0           6           8           0           8
      330470  1183814582         455         491         127          10           2          12           0          12          24           0          24
      330470  1183815531         430         433          47           5           0          11           0          11          25           0          25
      330470  1183815710         298         321          62           5           1           4           0           4           9           0           9
      330470  1183815765         436         463          61           4           3          16           0          16          21           0          21
      330470  1183815791         645         693         127          10           1           9           0           9          23           0          23
      330470  1183815887         348         315          17           3           0           2           0           2          11           0          11
      330470  1183816290         430         424          98           9           1           6           0           6          18           0          18
      330470  1183817753         363         434          21           3           1           4           0           4          11           0          11
      330470  1183818559         391         522          97           7           2           7           0           7          18           0          18
      330470  1183819555         464         472          77           6           0           9           0           9          20           0          20
      330470  1183819588         406         330          40           5           1           6           0           6           8           0           8
      330470  1183820651         471         467          84           7           1           6           0           6          17           0          17
      330470  1183821157         321         214          21           5           2           2           0           2          11           0          11
      330470  1183821186         602         614         101           8           1           9           0           9          30           0          30
      330470  1183822476         453         504          90           8           0          10           0          10          20           0          20
      330470  1183823625         409         340          58           5           3          10           0          10          16           0          16
      330470  1183824371         362         307          24           5           0           2           0           2          12           0          12
      330470  1183824531         393         363          78           8           3          13           0          13          17           0          17
      330470  1183824603         479         406          72           5           1          15           0          15          27           0          27
      330470  1183824788         473         361          67           9           2           6           0           6          28           0          28
      330470  1183824934         357         456          78           6           2           7           0           7          13           0          13
      330470  1183825276         370         333          33           6           1           2           0           2          10           0          10
      330470  1183826504         533         507         103          11           2           7           0           7          26           0          26
      330470  1183826935         290         251          46           6           0           7           0           7          17           0          17
      330470  1183827424         359         352          88           9           1          22           0          22          15           0          15
      330470  1183828215         521         413         136          12           2          14           0          14          30           0          30
      330470  1183828765         562         596          41           4           3           4           0           4          25           0          25
      330470  1183828961         522         572          48           3           2           4           0           4          19           0          19
      330470  1183829595         473         420          62           6           0           5           0           5          17           0          17
      330470  1183829748         592         613          76           6           0          10           0          10          23           0          23
      330470  1183830135         428         476         123          12           1          14           0          14          22           0          22
      330470  1183830977         336         262          34           4           0           3           0           3          13           0          13
      330470  1183830990         540         523          99           7           3          15           0          15          27           0          27
      330470  1183831582         393         454          84           9           2           7           0           7          22           0          22
      330470  1183832519         522         516         147           9           2          20           0          20          25           0          25
      330470  1183832772         304         356         119           9           0          25           0          25          16           0          16
      330470  1183834476         519         539         134          15           8          10           0          10          25           0          25
      330470  1183835286         339         352          44           5           1           2           0           2          13           0          13
      330470  1183836095         394         312          27           4           1           7           0           7          23           0          23
      330470  1183836112         514         536         120           8           0          10           0          10          20           0          20
      330470  1183836199         475         470          63           6           0           9           0           9          16           0          16
      330470  1183836240         489         587          43           5           2           5           0           5          13           0          13
      330470  1183836600         493         436          75           9           1           6           0           6          30           0          30
      330470  1183837702         471         433         120          10           6          17           0          17          30           0          30
      330470  1183837736         456         491          51           4           0           8           0           8          16           0          16
      330470  1183839277         582         566         152          12           1          17           0          17          40           0          40
      330470  1183839321         414         350          41           6           4           2           0           2          19           0          19
      330470  1183839551         486         438         113          11           0           5           0           5          22           0          22
      330470  1183840149         458         446         104           8           2           9           0           9          23           0          23
      330470  1183840173           2           0           0           0           1           0           0           0           0           0           0
      330470  1183840255         384         492         142           7           1          23           0          23          25           0          25
      330470  1183840606         166         243          11           3           0           4           0           4           5           0           5
      330470  1183841326         447         463          67           7           0           5           0           5          13           0          13
      330470  1183841473         532         464          92           8           3           9           0           9          18           0          18
      330470  1183841864         392         329          13           2           1           5           0           5          16           0          16
      330470  1183842339         196         156           9           2           0           0           0           0           3           0           3
      330470  1183842483         550         508          38           5           0           5           0           5          19           0          19
      330470  1183842622         404         444          74           7           1           9           0           9          21           0          21
      330470  1183842772         432         461          74           5           1          15           0          15          23           0          23
      330470  1183843837         357         374          33           2           1           7           0           7          13           0          13
      330470  1183844385         400         394          41           5           1           4           0           4           8           0           8
      330470  1183846886         385         267          19           4           0           4           0           4          20           0          20
      330470  1183847401         470         461          51           6           1           8           0           8          18           0          18
      330470  1183847806         433         488         116           9           0          15           0          15          20           0          20
      330470  1183848014         277         272          88           7           1          14           0          14          12           0          12
      330470  1183848066         352         393          75           6           1          11           0          11          20           0          20
      330470  1183848576         546         592          76           6           3           5           0           5          24           0          24
      330470  1183848643         540         480          40           4           6           5           0           5          31           0          31
      330470  1183848807         343         352          29           4           0           1           0           1          15           0          15
      330470  1183849444         393         339          50           8           2           4           0           4          22           0          22
      330470  1183849956         253         279          98          12           2          10           0          10          11           0          11
      330470  1183850785         343         364          57           6           1           6           0           6          12           0          12
      330470  1183851527         609         569          87           8           1           9           0           9          27           0          27
      330470  1183852090         470         447          71           6           2           4           0           4          17           0          17
      330470  1183852355         410         415          41           5           0           3           0           3          14           0          14
      330470  1183852362         567         668         182          12           1          16           0          16          29           0          29
      330470  1183852486         387         405          55           6           2           4           0           4          15           0          15
      330470  1183852552         509         470         100           6           3          18           0          18          20           0          20
      330470  1183853281         404         390          37           4           2           5           0           5          14           0          14
      330470  1183853303         555         525          74           9           4           6           0           6          25           0          25
      330470  1183853317         313         327          63           8           5           4           0           4          15           0          15
      330470  1183853842         629         584         101          10           1          10           0          10          28           0          28
      330470  1183854086         313         362          58           7           1           6           0           6          11           0          11
      330470  1183854099         444         521          66           8           0           2           0           2          13           0          13
      330470  1183854665         506         450          66           6           0           6           0           6          14           0          14
      330470  1183855151         279         207          13           3           0           2           0           2           3           0           3
      330470  1183855909         300         282          10           3           5           2           0           2           6           0           6
      330470  1183856263         586         621         106           8           3          11           0          11          29           0          29
      330470  1183856484         298         261          47           6           3           7           0           7          10           0          10
      330470  1183856702         357         283          39           5           2           1           0           1           8           0           8
      330470  1183856842         380         399          86           7           0           7           0           7          20           0          20
      330470  1183857840         423         330          12           2           0           1           0           1          13           0          13
      330470  1183858892         460         509          69           3           1           8           0           8          12           0          12
      330470  1183859367         554         535          69           8           2           4           0           4          26           0          26
      330470  1183859426         632         574         123           7           1          23           0          23          32           0          32
      330470  1183859771         540         599         141          12           4          14           0          14          27           0          27
      330470  1183861290         541         453          93          11           3           8           0           8          25           0          25
      330470  1183862039         312         354          60           6           0           9           0           9          13           0          13
      330470  1183862102         432         490          56           5           1           5           0           5          15           0          15
      330470  1183864358         393         494          78           8           2           6           0           6          19           0          19
      330470  1183864963         403         469          77           5           1           7           0           7          11           0          11
      330470  1183865268         406         470          50           5           2           3           0           3          10           0          10
      330470  1183865985         317         290          37           6           0           2           0           2          13           0          13
      330470  1183867774         340         442          71           5           0           8           0           8          11           0          11
      330470  1183868866         493         560          53           5           0           7           0           7          18           0          18
      330470  1183869024         565         537         133          12           3          11           0          11          27           0          27
      330470  1183869310         402         349          37           5           3           1           0           1          16           0          16
      330470  1183869356         265         338          33           6           1           1           0           1           6           0           6
      330470  1183870427         309         228          47           7           2           5           0           5          12           0          12
      330470  1183871236         389         313          19           3           0           5           0           5          14           0          14
      330470  1183872430         298         309          49           6           1           2           0           2          11           0          11
      330470  1183873300         384         372          54           5           1           5           0           5          15           0          15
      330470  1183874095         543         642         191          15           4           9           0           9          25           0          25
      330470  1183874756         311         209          16           3           1           1           0           1           9           0           9
      330470  1183875240         638         762         111          11           1           9           0           9          28           0          28
      330470  1183875307         387         283          26           4           2           2           0           2          13           0          13
      330470  1183875842         334         411          47           7           0           3           0           3          18           0          18
      330470  1183876008         349         263          58           6           0           8           0           8          15           0          15
      330470  1183876257         276         366          78           7           0          15           0          15          17           0          17
      330470  1183876690         399         425          33           3           0           4           0           4          11           0          11
      330470  1183878183         469         389          67           5           1           7           0           7          16           0          16
      330470  1183878278         337         375          37           5           1           5           0           5          10           0          10
      330470  1183878363         529         583         126           8           5          15           0          15          26           0          26
      330470  1183879080         615         646         111           9           3           9           0           9          30           0          30
      330470  1183879154         597         628          52           4           3           8           0           8          28           0          28
      330470  1183879547         423         439          15           2           2           0           0           0          13           0          13
      330470  1183879670         489         525         120           8           1          13           0          13          21           0          21
      330470  1183879957         494         578         147          13           0          12           0          12          25           0          25
      330470  1183880152         349         453          49           6           3           2           0           2          16           0          16
      330470  1183880330         714         571         175          13           3          25           0          25          52           0          52
      330470  1183880565         526         371          92          12           1          11           0          11          35           0          35
      330470  1183880598         344         343          37           6           1           0           0           0           8           0           8
      330470  1183881102         302         277          30           5           0           1           0           1           8           0           8
      330470  1183881663         380         438         106           9           0          10           0          10          15           0          15
      330470  1183882016         429         458          53           6           0           4           0           4          13           0          13
      330470  1183882345         412         567         115          11           0           3           0           3          18           0          18
      330470  1183882414         401         322          28           6           3           1           0           1          12           0          12
      330470  1183882641         360         266          63           8           1           7           0           7          17           0          17
      330470  1183882886         422         491          13           1           2           2           0           2          10           0          10
      330470  1183884717         238         261          11           3           1           2           0           2           6           0           6
      330470  1183885069         292         240          62           5           3          12           0          12          13           0          13
      330470  1183885910         310         358          50           6           1          11           0          11          16           0          16
      330470  1183889121         367         381         100           9           1          11           0          11          20           0          20
      330470  1183889788         361         471         113           7           3          13           0          13          20           0          20
      330470  1183890058         429         392          62           6           1           6           0           6          21           0          21
      330470  1183890245         558         582          21           2           1           5           0           5          23           0          23
      330470  1183891126         511         511         100          10           5          10           0          10          18           0          18
      330470  1183891888         517         590         108           7           3          13           0          13          15           0          15
      330470  1183893310         354         391          55           7           0           4           0           4          15           0          15
      330470  1183893518         503         621         117          10           3           9           0           9          12           0          12
      330470  1183894187         466         444          81           5           1          13           0          13          15           0          15
      330470  1183895022         461         448          53           5           1           5           0           5          14           0          14
      330470  1183896389         346         404          44           4           1           7           0           7          14           0          14
      330470  1183896930         499         499          66           9           1           4           0           4          19           0          19
      330470  1183896962         496         484          95          10           2           4           0           4          29           0          29
      330470  1183898226         431         452          23           5           4           2           0           2          11           0          11
      330470  1183899486         545         697         122           9           4          16           0          16          28           0          28
      330470  1183899562         274         243          48           5           2           7           0           7          12           0          12
      330470  1183899751         344         353          42           5           2           6           0           6          13           0          13
      330470  1183899810         410         343          68          10           0           5           0           5          23           0          23
      330470  1183900525         426         347          79           5           4           9           0           9          18           0          18
      330470  1183900622         378         296          53           3           3          10           0          10           8           0           8
      330470  1183900768         526         620         115           9           0           5           0           5          20           0          20
      330470  1183901965         365         364          61           7           2           5           0           5          15           0          15
      330470  1183902483         403         557          28           3           2           3           0           3          16           0          16
      330470  1183903458         514         607         131          10           4          12           0          12          19           0          19
      330470  1183904017         510         575          54           3           2           9           0           9          20           0          20
      330470  1183904322         462         486          34           3           1           2           0           2           8           0           8
      330470  1183905778         417         501          96           9           1           7           0           7          14           0          14
      330470  1183905825         411         391          51           5           2           5           0           5          13           0          13
      330470  1183906093         541         525          43           6           1           6           0           6          23           0          23
      330470  1183906408         465         512          93           7           2          12           0          12          17           0          17
      330470  1183906803         370         325         129          12           0          22           0          22          31           0          31
      330470  1183907843         453         484         100           7           1          11           0          11           9           0           9
      330470  1183908667         350         463          82           9           1           6           0           6           9           0           9
      330470  1183908690         449         528          64           6           2           5           0           5          22           0          22
      330470  1183908710         426         488          46           3           2           4           0           4           9           0           9
      330470  1183908744         541         560          56           6           3           3           0           3          19           0          19
      330470  1183909765         478         403          53           6           1          12           0          12          28           0          28
      330470  1183910082         699         606         102          11           5           5           0           5          26           0          26
      330470  1183910510         247         325          49           4           1           7           0           7           9           0           9
      330470  1183910733         396         440          77           8           1          10           0          10          12           0          12
      330470  1183912333         584         522         116          10           4          15           0          15          42           0          42
      330470  1183914006         420         400          84          10           0          15           0          15          24           0          24
      330470  1183914114         562         560         104           9           1          13           0          13          26           0          26
      330470  1183916856         326         375          41           4           0           2           0           2          14           0          14
      330470  1183918650         391         424          66           6           1           8           0           8          16           0          16
      330470  1183918694         364         432          43           4           0           2           0           2           7           0           7
      330470  1183919637         448         529          60           7           2           5           0           5          14           0          14
      330470  1183919773         240         206          11           2           0           2           0           2           6           0           6
      330470  1183919850         297         329          48           4           0           3           0           3           8           0           8
      330470  1183920419         468         459          53           6           0           2           0           2          14           0          14
      330470  1183920452         514         494          94           9           0           5           0           5          17           0          17
      330470  1183921161         491         532          72           5           2           5           0           5          23           0          23
      330470  1183921212         602         625         119          10           4          16           0          16          25           0          25
      330470  1183921894         119           0           0           0           0           0           0           0           3           0           3
      330470  1183922353         586         547          87           6           0           9           0           9          22           0          22
      330470  1183923963         422         453          42           5           0           5           0           5          12           0          12
      330470  1183924996         367         385          36           5           4           2           0           2           7           0           7
      330470  1183926015         402         366          71          11           0           2           0           2          19           0          19
      330470  1183927700         330         322          43           6           3           6           0           6           4           0           4
      330470  1183927897         390         345          42           5           0           3           0           3          10           0          10
      330470  1183929011         454         450          92           8           0          12           0          12          30           0          30
      330470  1183929579         449         385          37           5           3           2           0           2          16           0          16
      330470  1183929756         645         750         150           8           2          14           0          14          29           0          29
      330470  1183930152         444         419          53           5           1           4           0           4          13           0          13
      330470  1183930444         347         384          34           4           4           3           0           3          14           0          14
      330470  1183930564         539         427         118          13           2          11           0          11          36           0          36
      330470  1183931811         465         375          57           7           0           9           0           9          18           0          18
      330470  1183932465         456         541          83           7           2          11           0          11          17           0          17
      330470  1183933264         514         450          32           5           2           4           0           4          10           0          10
      330470  1183934061         556         608         150          10           2          14           0          14          31           0          31
      330470  1183934188         559         640         135          12           0          12           0          12          28           0          28
      330470  1183935176         505         635         103           9           1           8           0           8          21           0          21
      330470  1183935243         406         422         117           7           2          15           0          15          26           0          26
      330470  1183936048         505         442         113          11           0          14           0          14          24           0          24
      330470  1183937915         358         330          42           5           0           5           0           5           9           0           9
      330470  1183937927         530         536          65           5           1           8           0           8          24           0          24
      330470  1183938712         427         382          47           6           1           2           0           2          20           0          20
      330470  1183938824         345         394          75           9           0           3           0           3          11           0          11
      330470  1183939219         533         500          41           4           2           9           0           9          16           0          16
      330470  1183939285         273         161          23           4           0           5           0           5           8           0           8
      330470  1183939881         561         508          87           8           1           6           0           6          22           0          22
      330470  1183941479         270         333           8           1           0           2           0           2           6           0           6
      330470  1183943435          21           0           0           0           0           0           0           0           0           0           0
      330470  1183944121         428         399          65           7           2           6           0           6          25           0          25
      330470  1183944525         423         496          71           7           1           6           0           6          13           0          13
      330470  1183946835         778         886         187          13           3          24           0          24          38           0          38
      330470  1183949177         403         463          57           4           0           7           0           7          17           0          17
      330470  1183949782         548         522          91           9           1          12           0          12          20           0          20
      330470  1183952907         561         642          55           4           3           9           0           9          17           0          17
      330470  1183953399         578         478          86           8           0          13           0          13          32           0          32
      330470  1183953421         469         330          46           6           3           3           0           3          11           0          11
      330470  1183953881         339         367          18           2           1           2           0           2           6           0           6
      330470  1183954827         344         429          67           8           1           7           0           7          14           0          14
      330470  1183957781           3           0           0           0           0           0           0           0           0           0           0
      330470  1183958083         367         377          62           3           1          10           0          10          13           0          13
      330470  1183960085         586         580          76           6           4           8           0           8          13           0          13
      330470  1183960556         370         351          46           6           0           4           0           4           8           0           8
      330470  1183961006         467         453         115          10           1          15           0          15          19           0          19
      330470  1183961573         616         717         151           9           4          11           0          11          22           0          22
      330470  1183961597         351         258          38           6           1           3           0           3          14           0          14
      330470  1183963195         522         567         112          12           1          13           0          13          20           0          20
      330470  1183969128         303         350          69           6           1          12           0          12          17           0          17
      330470  1183969905         585         593          96           8           1          14           0          14          23           0          23
      330470  1183970393         350         359          80           6           0           8           0           8          14           0          14
      330470  1183970582         174         223          24           3           1           2           0           2           5           0           5
      330470  1183973235         544         533          64           5           1           5           0           5          17           0          17
      330470  1183974800         386         404          55           5           1           4           0           4          15           0          15
      330470  1183975144         422         516          94           9           1           8           0           8          28           0          28
      330470  1183977930         266         296          18           2           0           6           0           6           8           0           8
      330470  1183979636         434         503          72           5           0           4           0           4          10           0          10
      330470  1183982156         373         450          43           3           1           2           0           2          10           0          10
      330470  1183982855         448         401          49           7           2           2           0           2          14           0          14
      330470  1183983079         512         545          87           9           1           7           0           7          29           0          29
      330470  1183983113         387         382          36           3           1           3           0           3          17           0          17
      330470  1183984897         342         293          50           5           0          14           0          14          15           0          15
      330470  1183985311         421         572          79           6           1          12           0          12          12           0          12
      330470  1183987027         468         480          96           5           0           4           0           4          17           0          17
      330470  1183988197         390         422          45           6           4           4           0           4          19           0          19
      330470  1183991258         380         393          36           6           0           1           0           1          13           0          13
      330470  1183991399         859         818          67           6           1           9           0           9          44           0          44
      330470  1183994870         492         543         105          10           1          12           0          12          25           0          25
      330470  1183995076         239         205           9           1           2           1           0           1           5           0           5
      330470  1183995604         394         354          55           6           0           2           0           2          13           0          13
      330470  1183995956         394         390          42           3           1           8           0           8          12           0          12
      330470  1183997552         522         536          97          10           0           4           0           4          23           0          23
      330470  1183997623         408         325          57           8           1           6           0           6          14           0          14
      330470  1183997905         350         317          19           3           0           1           0           1           6           0           6
      330470  1184001332         450         406          95           8           4          11           0          11          26           0          26
      330470  1184003671         421         386          57           7           1           7           0           7          16           0          16
      330470  1184007839         421         441          70           6           3           9           0           9          15           0          15
      330470  1184010792         477         468          99          10           0           5           0           5          15           0          15
      330470  1184011907         359         414          83           9           1           2           0           2          16           0          16
      330470  1184012123         368         329          66           7           0          10           0          10          22           0          22
      330470  1184013681         311         239          36           7           0           1           0           1          12           0          12
      330470  1184014074         358         359          63           7           0           3           0           3          12           0          12
      330470  1184016450         487         503         103          10           0          13           0          13          29           0          29
      330470  1184019719         414         367          70          10           1           3           0           3          20           0          20
      330470  1184020401         563         454          74           8           4           7           0           7          28           0          28
      330470  1184026109         415         333          72           8           0          11           0          11          20           0          20
      330470  1184026603         601         609         137          11           2           6           0           6          26           0          26
      330470  1184027737         477         484          65           7           0           0           0           0          16           0          16
      330470  1184028312         570         580         127          14           1          10           0          10          30           0          30
      330470  1184044299         105           0           0           0           0           0           0           0           0           0           0
      330470  1184045730         361         462          66           7           1           5           0           5          14           0          14
      330470  1184048892         508         454          89           9           1           8           0           8          31           0          31
      330470  1184054880         375         337           8           1           0           2           0           2           6           0           6
      330470  1184055196         330         270          40           6           1           4           0           4          11           0          11
      330470  1184064491          68           0           0           1           0           0           0           0           0           0           0
      330470  1184065397          91           0           0           0           0           0           0           0           3           0           3
